\babel@toc {english}{}
\babel@toc {spanish}{}
\contentsline {section}{\numberline {1}Anillos e ideales}{1}{section.1}% 
\contentsline {subsection}{\numberline {1.1}Ejericios dentro del capítulo}{1}{subsection.1.1}% 
\contentsline {subsection}{\numberline {1.2}Ejericios al final del capítulo}{3}{subsection.1.2}% 
\contentsline {section}{\numberline {2}Módulos}{13}{section.2}% 
\contentsline {subsection}{\numberline {2.1}Ejericios dentro del capítulo}{13}{subsection.2.1}% 
\contentsline {subsection}{\numberline {2.2}Ejericios al final del capítulo}{13}{subsection.2.2}% 
