\relax 
\providecommand\hyper@newdestlabel[2]{}
\catcode `"\active 
\catcode `<\active 
\catcode `>\active 
\@nameuse{es@quoting}
\providecommand\HyperFirstAtBeginDocument{\AtBeginDocument}
\HyperFirstAtBeginDocument{\ifx\hyper@anchor\@undefined
\global\let\oldcontentsline\contentsline
\gdef\contentsline#1#2#3#4{\oldcontentsline{#1}{#2}{#3}}
\global\let\oldnewlabel\newlabel
\gdef\newlabel#1#2{\newlabelxx{#1}#2}
\gdef\newlabelxx#1#2#3#4#5#6{\oldnewlabel{#1}{{#2}{#3}}}
\AtEndDocument{\ifx\hyper@anchor\@undefined
\let\contentsline\oldcontentsline
\let\newlabel\oldnewlabel
\fi}
\fi}
\global\let\hyper@last\relax 
\gdef\HyperFirstAtBeginDocument#1{#1}
\providecommand*\HyPL@Entry[1]{}
\citation{atiyah1989introduccion}
\HyPL@Entry{0<</S/D>>}
\babel@aux{english}{}
\babel@aux{spanish}{}
\@writefile{brf}{\backcite{atiyah1989introduccion}{{1}{(document)}{Doc-Start}}}
\@writefile{toc}{\contentsline {section}{\numberline {1}Anillos e ideales}{1}{section.1}\protected@file@percent }
\@writefile{toc}{\contentsline {subsection}{\numberline {1.1}Ejericios dentro del capítulo}{1}{subsection.1.1}\protected@file@percent }
\@writefile{toc}{\contentsline {subsection}{\numberline {1.2}Ejericios al final del capítulo}{3}{subsection.1.2}\protected@file@percent }
\newlabel{Ej_1_8}{{1.2}{3}{Ejericios al final del capítulo}{subsection.1.2}{}}
\newlabel{Ej_1_12}{{1.2}{3}{Ejericios al final del capítulo}{Th.1.1}{}}
\newlabel{Ej_1_18}{{1.2}{6}{Ejericios al final del capítulo}{Item.51}{}}
\newlabel{Prop_1}{{1.2}{7}{}{Th.1.2}{}}
\newlabel{Prop_2}{{1.3}{7}{}{Th.1.3}{}}
\newlabel{Ej_1_21}{{1.2}{8}{Ejericios al final del capítulo}{Item.67}{}}
\newlabel{Ej_1_26}{{1.2}{11}{Ejericios al final del capítulo}{Item.84}{}}
\citation{*}
\bibstyle{alpha}
\bibdata{Ejercicios_AM.bib}
\bibcite{atiyah1989introduccion}{AM89}
\bibcite{hartshorne2013algebraic}{Har13}
\@writefile{toc}{\contentsline {section}{\numberline {2}Módulos}{13}{section.2}\protected@file@percent }
\@writefile{toc}{\contentsline {subsection}{\numberline {2.1}Ejericios dentro del capítulo}{13}{subsection.2.1}\protected@file@percent }
\@writefile{toc}{\contentsline {subsection}{\numberline {2.2}Ejericios al final del capítulo}{13}{subsection.2.2}\protected@file@percent }
